{
  "book_array": [
    {
      "book_title": "The book One title",
      "image": "https://i.imgur.com/DwduqUMb.jpg",
      "author": "author Name One"
    },

    {
      "book_title": "The book One title",
      "image": "https://i.imgur.com/DwduqUMb.jpg",
      "author": "author Name One"
    },

    {
      "book_title": "The book One title",
      "image": "https://i.imgur.com/DwduqUMb.jpg",
      "author": "author Name One"
    },

    {
      "book_title": "The book One title",
      "image": "https://i.imgur.com/DwduqUMb.jpg",
      "author": "author Name One"
    },

    {
      "book_title": "The book One title",
      "image": "https://i.imgur.com/DwduqUMb.jpg",
      "author": "author Name One"
    },

    {
      "book_title": "The book One title",
      "image": "https://i.imgur.com/DwduqUMb.jpg",
      "author": "author Name One"
    },

    {
      "book_title": "The book One title",
      "image": "https://i.imgur.com/DwduqUMb.jpg",
      "author": "author Name One"
    }
  ]
}
