 {
  "food": [
    {
      "id": 1,
      "shop_title": "BURGER LABS",
      "image": "https://i.imgur.com/DwduqUMb.jpg",
      "distance": "14km",
      "phone_number": "+92 (929) 243-4888",
      "information": {
      "outlet_information": {
        "id": 1,
        "address": "252 Takbeer Block,Bharia Town, Lahore",
        "phone_number": "03343283898",
        "fax_number": "03433147598"
      },
      "outlet_description": {
        "description": "This is the shop description."
      },
      "specialities": "Subs,Panini,Drinks etc ",
      "facilities": "Wifi, Dinein, Parking, Card Accepted"
    }
    },
    {
      "id": 2,
      "shop_title": "KFC",
      "image": "https://i.imgur.com/DwduqUMb.jpg",
      "distance": "14km",
      "phone_number": "0343147590"
    },
    {
      "id": 3,
      "shop_title": "MCDONALDS",
      "image": "https://i.imgur.com/DwduqUMb.jpg",
      "distance": "14km",
      "phone_number": "0343147590"
    },
    {
      "id": 4,
      "shop_title": "KARACHI FOODS",
      "image": "https://i.imgur.com/DwduqUMb.jpg",
      "distance": "14km",
      "phone_number": "0343147590"
    },
    {
      "id": 5,
      "shop_title": "HARDEE'S",
      "image": "https://i.imgur.com/DwduqUMb.jpg",
      "distance": "14km",
      "phone_number": "0343147590"
    },
    {
      "id": 6,
      "shop_title": "HOT SHOT",
      "image": "https://i.imgur.com/DwduqUMb.jpg",
      "distance": "14km",
      "phone_number": "0343147590"
    },
    {
      "id": 7,
      "shop_title": "SHAHEEN SHINWARI",
      "image": "https://i.imgur.com/DwduqUMb.jpg",
      "distance": "14km",
      "phone_number": "0343147590"
    },
    {
      "id": 8,
      "shop_title": "ROYAL ICE & SPICE",
      "image": "https://i.imgur.com/DwduqUMb.jpg",
      "distance": "14km",
      "phone_number": "0343147590"
    },
    {
      "id": 9,
      "shop_title": "KAYBESS",
      "image": "https://i.imgur.com/DwduqUMb.jpg",
      "distance": "14km",
      "phone_number": "0343147590"
    },
    {
      "id": 10,
      "shop_title": "KABABJEES",
      "image": "https://i.imgur.com/DwduqUMb.jpg",
      "distance": "14km",
      "phone_number": "0343147590"
    }
  ],

  "retail": [
    {
      "id": 1,
      "shop_title": "UMAR RETAILER",
      "image": "https://i.imgur.com/DwduqUMb.jpg",
      "distance": "14km",
      "phone_number": "0343147590"
    },
    {
      "id": 2,
      "shop_title": "KFC",
      "image": "https://i.imgur.com/DwduqUMb.jpg",
      "distance": "14km"
    },
    {
      "id": 3,
      "shop_title": "MCDONALDS",
      "image": "https://i.imgur.com/DwduqUMb.jpg",
      "distance": "14km"
    },
    {
      "id": 4,
      "shop_title": "KARACHI FOODS",
      "image": "https://i.imgur.com/DwduqUMb.jpg",
      "distance": "14km"
    },
    {
      "id": 5,
      "shop_title": "HARDEE'S",
      "image": "https://i.imgur.com/DwduqUMb.jpg",
      "distance": "14km"
    },
    {
      "id": 6,
      "shop_title": "HOT SHOT",
      "image": "https://i.imgur.com/DwduqUMb.jpg",
      "distance": "14km"
    },
    {
      "id": 7,
      "shop_title": "SHAHEEN SHINWARI",
      "image": "https://i.imgur.com/DwduqUMb.jpg",
      "distance": "14km"
    },
    {
      "id": 8,
      "shop_title": "ROYAL ICE & SPICE",
      "image": "https://i.imgur.com/DwduqUMb.jpg",
      "distance": "14km"
    },
    {
      "id": 9,
      "shop_title": "KAYBESS",
      "image": "https://i.imgur.com/DwduqUMb.jpg",
      "distance": "14km"
    },
    {
      "id": 10,
      "shop_title": "KABABJEES",
      "image": "https://i.imgur.com/DwduqUMb.jpg",
      "distance": "14km"
    }
  ]
}


